Team savethebesttillast
…
happy_data %>% select(`country`, `year`, `Generosity`, 
                     `Social support`, `Perceptions of corruption`, 
                     `Freedom to make life choices`, `happiness_score`)

## # A tibble: 1,420 x 7
##    country  year Generosity `Social support` `Perceptions of
##    <chr>   <dbl>      <dbl>            <dbl>            <dbl>
##  1 Afghan  2008    0.183              0.451            0.882
##  2 Afghan  2009    0.205              0.552            0.850
##  3 Afghan  2010    0.139              0.539            0.707
##  4 Afghan  2011    0.176              0.521            0.731
##  5 Afghan  2012    0.248              0.521            0.776
##  6 Afghan  2013    0.0752             0.484            0.823
##  7 Afghan  2014    0.119              0.526            0.871
##  8 Afghan  2015    0.0946             0.529            0.881
##  9 Afghan  2016    0.0574             0.559            0.793
## 10 Albania  2007   -0.00759            0.821            0.875
## #  with 1,410 more rows, and 2 more variables: `Freedom to make life
## #   choices` <dbl>, happiness_score <dbl>
…
Let us filter out missing data by column

happy_data1 %>% filter(!is.na(Generosity))

## # A tibble: 1,328 x 7
##    country year  Generosity `Social support` `Perceptions of
##    <fct>   <fct> <fct>      <fct>            <fct>           
##  1 Afghan 2008  0.1830619 0.4506623148918 0.8816863298416
##  2 Afghan 2009  0.2046332 0.5523084402084 0.8500354290008
##  3 Afghan 2010  0.1385287 0.5390751957893 0.7067660689353
##  4 Afghan 2011  0.1761078 0.52110356092453 0.7311085462570
##  5 Afghan 2012  0.2477128 0.5206367373466 0.7756198048591
##  6 Afghan 2013  0.0751857 0.4835518598556 0.8232041001319
##  7 Afghan 2014  0.1189337 0.5255684256553 0.8712419867515
##  8 Afghan 2015  0.0946350 0.5285972356796 0.8806383013725
##  9 Afghan 2016  0.0573931 0.5590717792510 0.7932455539703
## 10 Albania 2007  -0.007585 0.8213716149330 0.8746995329856
## #  with 1,318 more rows, and 2 more variables: `Freedom to make life
## #   choices` <fct>, happiness_score <fct>

happy_data1 %>% filter(!is.na(`Social support`))

## # A tibble: 1,408 x 7
##    country year  Generosity `Social support` `Perceptions of
##    <fct>   <fct> <fct>      <fct>            <fct>           
##  1 Afghan 2008  0.1830619 0.4506623148918 0.8816863298416
##  2 Afghan 2009  0.2046332 0.5523084402084 0.8500354290008
##  3 Afghan 2010  0.1385287 0.5390751957893 0.7067660689353
##  4 Afghan 2011  0.1761078 0.52110356092453 0.7311085462570
##  5 Afghan 2012  0.2477128 0.5206367373466 0.7756198048591
##  6 Afghan 2013  0.0751857 0.4835518598556 0.8232041001319
##  7 Afghan 2014  0.1189337 0.5255684256553 0.8712419867515
##  8 Afghan 2015  0.0946350 0.5285972356796 0.8806383013725
##  9 Afghan 2016  0.0573931 0.5590717792510 0.7932455539703
## 10 Albania 2007  -0.007585 0.8213716149330 0.8746995329856
## #  with 1,398 more rows, and 2 more variables: `Freedom to make life
## #   choices` <fct>, happiness_score <fct>

happy_data1 %>% filter(!is.na(`Perceptions of corruption`))

## # A tibble: 1,336 x 7
##    country year  Generosity `Social support` `Perceptions of
##    <fct>   <fct> <fct>      <fct>            <fct>           
##  1 Afghan 2008  0.1830619 0.4506623148918 0.8816863298416
##  2 Afghan 2009  0.2046332 0.5523084402084 0.8500354290008
##  3 Afghan 2010  0.1385287 0.5390751957893 0.7067660689353
##  4 Afghan 2011  0.1761078 0.52110356092453 0.7311085462570
##  5 Afghan 2012  0.2477128 0.5206367373466 0.7756198048591
##  6 Afghan 2013  0.0751857 0.4835518598556 0.8232041001319
##  7 Afghan 2014  0.1189337 0.5255684256553 0.8712419867515
##  8 Afghan 2015  0.0946350 0.5285972356796 0.8806383013725
##  9 Afghan 2016  0.0573931 0.5590717792510 0.7932455539703
## 10 Albania 2007  -0.007585 0.8213716149330 0.8746995329856
## #  with 1,326 more rows, and 2 more variables: `Freedom to make life
## #   choices` <fct>, happiness_score <fct>

happy_data1 %>% filter(!is.na(`Freedom to make life choices`))

## # A tibble: 1,386 x 7
##    country year  Generosity `Social support` `Perceptions of
##    <fct>   <fct> <fct>      <fct>            <fct>           
##  1 Afghan 2008  0.1830619 0.4506623148918 0.8816863298416
##  2 Afghan 2009  0.2046332 0.5523084402084 0.8500354290008
##  3 Afghan 2010  0.1385287 0.5390751957893 0.7067660689353
##  4 Afghan 2011  0.1761078 0.52110356092453 0.7311085462570
##  5 Afghan 2012  0.2477128 0.5206367373466 0.7756198048591
##  6 Afghan 2013  0.0751857 0.4835518598556 0.8232041001319
##  7 Afghan 2014  0.1189337 0.5255684256553 0.8712419867515
##  8 Afghan 2015  0.0946350 0.5285972356796 0.8806383013725
##  9 Afghan 2016  0.0573931 0.5590717792510 0.7932455539703
## 10 Albania 2007  -0.007585 0.8213716149330 0.8746995329856
## #  with 1,376 more rows, and 2 more variables: `Freedom to make life
## #   choices` <fct>, happiness_score <fct>
…
