Spicy_salsa
…
Tidying

colnames(happy_data)[4] <- "life_ladder"

data <- clean_names(happy_data) #Cleaning data names

Take 1

data1 <- select(filter(data, year == 2016), "country", "life_ladder", "positive_affect", "negative_affect")
data1

## # A tibble: 141 x 4
##    country     life_ladder positive_affect negative_affect
##    <chr>             <dbl>           <dbl>           <dbl>
##  1 Afghanistan        4.22           0.565           0.348
##  2 Albania            4.51           0.675           0.322
##  3 Algeria            5.39           0.669           0.371
##  4 Argentina          6.43           0.842           0.312
##  5 Armenia            4.33           0.594           0.437
##  6 Australia          7.25           0.791           0.236
##  7 Austria            7.05           0.756           0.197
##  8 Azerbaijan         5.30           0.598           0.191
##  9 Bahrain            6.17           0.787           0.283
## 10 Bangladesh         4.56           0.560           0.235
## #  with 131 more rows
…
